Data Transformation with dplyr (W6)
…
Data Transformation with dplyr (W6)

2019-10-17

Why dplyr?

 data frame df[<vector 1>, <vector 2>] data frame :

library(tibble)
df <- as_tibble(iris)

# How long does it take to understand the command below?
df[(df$Species == "setosa") & (df$Sepal.Length < 5.8), c("Species", "Sepal.Width")]

#> # A tibble: 49 x 2
#>    Species Sepal.Width
#>    <fct>         <dbl>
#>  1 setosa          3.5
#>  2 setosa          3  
#>  3 setosa          3.2
#>  4 setosa          3.1
#>  5 setosa          3.6
#>  6 setosa          3.9
#>  7 setosa          3.4
#>  8 setosa          3.4
#>  9 setosa          2.9
#> 10 setosa          3.1
#> #  with 39 more rows

 dplyr  data frame 

 (.csv)

 RStudio Environment Pane  >  Import Dataset  >  From Text (readr)...

babynames <- readr::read_csv('babynames.csv')
babynames

#> # A tibble: 177,780 x 5
#>     year sex   name        n   prop
#>    <dbl> <chr> <chr>   <dbl>  <dbl>
#>  1  1880 M     John     9655 0.0815
#>  2  1880 M     William  9532 0.0805
#>  3  1880 M     James    5927 0.0501
#>  4  1880 M     Charles  5348 0.0452
#>  5  1880 M     George   5126 0.0433
#>  6  1880 M     Frank    3242 0.0274
#>  7  1880 M     Joseph   2632 0.0222
#>  8  1880 M     Thomas   2534 0.0214
#>  9  1880 M     Henry    2444 0.0206
#> 10  1880 M     Robert   2415 0.0204
#> #  with 177,770 more rows
…
 babynames  name  prop 

library(dplyr)

# select(<data frame>, <variable name in df>, <variable name in df>, ...)
select(babynames, name, prop)  # eqivalent to babynames[, c("name", "prop")]

#> # A tibble: 177,780 x 2
#>    name      prop
#>    <chr>    <dbl>
#>  1 John    0.0815
#>  2 William 0.0805
#>  3 James   0.0501
#>  4 Charles 0.0452
#>  5 George  0.0433
#>  6 Frank   0.0274
#>  7 Joseph  0.0222
#>  8 Thomas  0.0214
#>  9 Henry   0.0206
#> 10 Robert  0.0204
#> #  with 177,770 more rows

helpers

dplyr 

iris_ <- as_tibble(iris)
select(iris_, starts_with('Sepal'))

#> # A tibble: 150 x 2
#>    Sepal.Length Sepal.Width
#>           <dbl>       <dbl>
#>  1          5.1         3.5
#>  2          4.9         3  
#>  3          4.7         3.2
#>  4          4.6         3.1
#>  5          5           3.6
#>  6          5.4         3.9
#>  7          4.6         3.4
#>  8          5           3.4
#>  9          4.4         2.9
#> 10          4.9         3.1
#> #  with 140 more rows

select(iris_, ends_with('Width'))

#> # A tibble: 150 x 2
#>    Sepal.Width Petal.Width
#>          <dbl>       <dbl>
#>  1         3.5         0.2
#>  2         3           0.2
#>  3         3.2         0.2
#>  4         3.1         0.2
#>  5         3.6         0.2
#>  6         3.9         0.4
#>  7         3.4         0.3
#>  8         3.4         0.2
#>  9         2.9         0.2
#> 10         3.1         0.1
#> #  with 140 more rows

select(iris_, contains('.'))

#> # A tibble: 150 x 4
#>    Sepal.Length Sepal.Width Petal.Length Petal.Width
#>           <dbl>       <dbl>        <dbl>       <dbl>
#>  1          5.1         3.5          1.4         0.2
#>  2          4.9         3            1.4         0.2
#>  3          4.7         3.2          1.3         0.2
#>  4          4.6         3.1          1.5         0.2
#>  5          5           3.6          1.4         0.2
#>  6          5.4         3.9          1.7         0.4
#>  7          4.6         3.4          1.4         0.3
#>  8          5           3.4          1.5         0.2
#>  9          4.4         2.9          1.4         0.2
#> 10          4.9         3.1          1.5         0.1
#> #  with 140 more rows
…
 n  babynames 

#arrange(<data frame>, <variable name in df>, <variable name in df>, ...)
arrange(babynames, n)

#> # A tibble: 177,780 x 5
#>     year sex   name         n      prop
#>    <dbl> <chr> <chr>    <dbl>     <dbl>
#>  1  1880 M     Ab           5 0.0000422
#>  2  1880 M     Abbott       5 0.0000422
#>  3  1880 M     Agustus      5 0.0000422
#>  4  1880 M     Albertus     5 0.0000422
#>  5  1880 M     Almer        5 0.0000422
#>  6  1880 M     Alphonso     5 0.0000422
#>  7  1880 M     Alvia        5 0.0000422
#>  8  1880 M     Artie        5 0.0000422
#>  9  1880 M     Arvid        5 0.0000422
#> 10  1880 M     Ashby        5 0.0000422
#> #  with 177,770 more rows

#  ()
arrange(babynames, desc(n))

#> # A tibble: 177,780 x 5
#>     year sex   name       n    prop
#>    <dbl> <chr> <chr>  <dbl>   <dbl>
#>  1  2013 F     Sophia 21213 0.0110 
#>  2  2013 F     Emma   20936 0.0109 
#>  3  2014 F     Emma   20924 0.0107 
#>  4  2015 F     Emma   20435 0.0105 
#>  5  2014 F     Olivia 19791 0.0101 
#>  6  2017 F     Emma   19738 0.0105 
#>  7  2015 F     Olivia 19669 0.0101 
#>  8  2015 M     Noah   19613 0.00962
#>  9  2016 F     Emma   19471 0.0101 
#> 10  2016 F     Olivia 19327 0.0100 
#> #  with 177,770 more rows

# Order first by `year` then by `name`
arrange(babynames, year, name)

#> # A tibble: 177,780 x 5
#>     year sex   name        n      prop
#>    <dbl> <chr> <chr>   <dbl>     <dbl>
#>  1  1880 M     Aaron     102 0.000861 
#>  2  1880 M     Ab          5 0.0000422
#>  3  1880 F     Abbie      71 0.000727 
#>  4  1880 M     Abbott      5 0.0000422
#>  5  1880 F     Abby        6 0.0000615
#>  6  1880 M     Abe        50 0.000422 
#>  7  1880 M     Abel        9 0.0000760
#>  8  1880 F     Abigail    12 0.000123 
#>  9  1880 M     Abner      27 0.000228 
#> 10  1880 M     Abraham    81 0.000684 
#> #  with 177,770 more rows

# Order first by `name` then by `year`
arrange(babynames, name, year)

#> # A tibble: 177,780 x 5
#>     year sex   name      n       prop
#>    <dbl> <chr> <chr> <dbl>      <dbl>
#>  1  2013 M     Aaban    14 0.00000694
#>  2  2014 M     Aaban    16 0.00000783
#>  3  2015 M     Aaban    15 0.00000736
#>  4  2016 M     Aaban     9 0.00000446
#>  5  2017 M     Aaban    11 0.0000056 
#>  6  2014 F     Aabha     9 0.00000461
#>  7  2015 F     Aabha     7 0.0000036 
#>  8  2016 F     Aabha     7 0.00000363
#>  9  2016 M     Aabid     5 0.00000248
#> 10  2016 M     Aabir     5 0.00000248
#> #  with 177,770 more rows
…
girls2017 <- filter(babynames, year == 2017, sex == "F")
girls2017 <- select(girls2017, name, n)
girls2017 <- arrange(girls2017, desc(n))
girls2017

%>%: Connecting multiple dplyr functions together

dplyr :select() filter() arrange() 

girls2017 <- filter(babynames, year == 2017, sex == "F")
girls2017 <- select(girls2017, name, n)
girls2017 <- arrange(girls2017, desc(n))
girls2017

#> # A tibble: 18,309 x 2
#>    name          n
#>    <chr>     <dbl>
#>  1 Emma      19738
#>  2 Olivia    18632
#>  3 Ava       15902
#>  4 Isabella  15100
#>  5 Sophia    14831
#>  6 Mia       13437
#>  7 Charlotte 12893
#>  8 Amelia    11800
#>  9 Evelyn    10675
#> 10 Abigail   10551
#> #  with 18,299 more rows

dplyr ( magrittr)  binary operator %>% %>%  ()  %>%  (, argument)

# Two equivalent expressions
filter(babynames, year == 2017, sex == "F")

cat('\n\n')  # 

babynames %>% filter(year == 2017, sex == "F")

#> # A tibble: 18,309 x 5
#>     year sex   name          n    prop
#>    <dbl> <chr> <chr>     <dbl>   <dbl>
#>  1  2017 F     Emma      19738 0.0105 
#>  2  2017 F     Olivia    18632 0.00994
#>  3  2017 F     Ava       15902 0.00848
#>  4  2017 F     Isabella  15100 0.00805
#>  5  2017 F     Sophia    14831 0.00791
#>  6  2017 F     Mia       13437 0.00717
#>  7  2017 F     Charlotte 12893 0.00688
#>  8  2017 F     Amelia    11800 0.00629
#>  9  2017 F     Evelyn    10675 0.00569
#> 10  2017 F     Abigail   10551 0.00563
#> #  with 18,299 more rows
#> 
#> 
#> # A tibble: 18,309 x 5
#>     year sex   name          n    prop
#>    <dbl> <chr> <chr>     <dbl>   <dbl>
#>  1  2017 F     Emma      19738 0.0105 
#>  2  2017 F     Olivia    18632 0.00994
#>  3  2017 F     Ava       15902 0.00848
#>  4  2017 F     Isabella  15100 0.00805
#>  5  2017 F     Sophia    14831 0.00791
#>  6  2017 F     Mia       13437 0.00717
#>  7  2017 F     Charlotte 12893 0.00688
#>  8  2017 F     Amelia    11800 0.00629
#>  9  2017 F     Evelyn    10675 0.00569
#> 10  2017 F     Abigail   10551 0.00563
#> #  with 18,299 more rows

babynames %>% 
    filter(year == 2017, sex == "F") %>% 
    select(name, n) %>%
    arrange(desc(n))

#> # A tibble: 18,309 x 2
#>    name          n
#>    <chr>     <dbl>
#>  1 Emma      19738
#>  2 Olivia    18632
#>  3 Ava       15902
#>  4 Isabella  15100
#>  5 Sophia    14831
#>  6 Mia       13437
#>  7 Charlotte 12893
#>  8 Amelia    11800
#>  9 Evelyn    10675
#> 10 Abigail   10551
#> #  with 18,299 more rows
…
 prop  percent

mutate()  R  (i.e.)  mutate()  vectorized functionvectorized function  vector  vector

babynames %>% mutate(percent = prop*100)

#> # A tibble: 177,780 x 6
#>     year sex   name        n   prop percent
#>    <dbl> <chr> <chr>   <dbl>  <dbl>   <dbl>
#>  1  1880 M     John     9655 0.0815    8.15
#>  2  1880 M     William  9532 0.0805    8.05
#>  3  1880 M     James    5927 0.0501    5.01
#>  4  1880 M     Charles  5348 0.0452    4.52
#>  5  1880 M     George   5126 0.0433    4.33
#>  6  1880 M     Frank    3242 0.0274    2.74
#>  7  1880 M     Joseph   2632 0.0222    2.22
#>  8  1880 M     Thomas   2534 0.0214    2.14
#>  9  1880 M     Henry    2444 0.0206    2.06
#> 10  1880 M     Robert   2415 0.0204    2.04
#> #  with 177,770 more rows

babynames %>% mutate(sex2 = if_else(sex == "F", "female", "male"))

#> # A tibble: 177,780 x 6
#>     year sex   name        n   prop sex2 
#>    <dbl> <chr> <chr>   <dbl>  <dbl> <chr>
#>  1  1880 M     John     9655 0.0815 male 
#>  2  1880 M     William  9532 0.0805 male 
#>  3  1880 M     James    5927 0.0501 male 
#>  4  1880 M     Charles  5348 0.0452 male 
#>  5  1880 M     George   5126 0.0433 male 
#>  6  1880 M     Frank    3242 0.0274 male 
#>  7  1880 M     Joseph   2632 0.0222 male 
#>  8  1880 M     Thomas   2534 0.0214 male 
#>  9  1880 M     Henry    2444 0.0206 male 
#> 10  1880 M     Robert   2415 0.0204 male 
#> #  with 177,770 more rows
…
